…
The data was cleaned and added to through pipes that: 
- separated and removed columns
- joined tables together 


Cleaned Tables
========================================================


```
# A tibble: 606 x 4
   Commodity type           chem                toxicity
   <chr>     <chr>          <chr>                  <dbl>
 1 BROCCOLI  " HERBICIDE"   PARAQUAT               223  
 2 BROCCOLI  " INSECTICIDE" ABAMECTIN              630  
 3 BROCCOLI  " INSECTICIDE" BETA-CYFLUTHRIN         NA  
 4 BROCCOLI  " INSECTICIDE" BIFENTHRIN              42.5
 5 BROCCOLI  " INSECTICIDE" CHLORANTRANILIPROLE   5000  
 6 BROCCOLI  " INSECTICIDE" CHLORPYRIFOS           151  
 7 BROCCOLI  " INSECTICIDE" CYFLUTHRIN             500  
 8 BROCCOLI  " INSECTICIDE" EMAMECTIN BENZOATE      76.0
 9 BROCCOLI  " INSECTICIDE" ESFENVALERATE           88.5
10 BROCCOLI  " INSECTICIDE" IMIDACLOPRID           256  
# ... with 596 more rows
```
…
